…
wait a second..... all my factor variables are seen as charactor variables. Let me fix that and continue so see if my variables are still ordered:
==================================================================================================================================================

``` r
Collapsed.Americas.CSV %>% 
  mutate(country = factor(country), continent = factor(continent))
```

    ## # A tibble: 300 x 5
    ##    continent                   country  year      pop   maxPop
    ##       <fctr>                    <fctr> <int>    <int>    <int>
    ##  1  Americas Non_interesting_Countries  1952 17876956 40301927
    ##  2  Americas Non_interesting_Countries  1957 19610538 40301927
    ##  3  Americas Non_interesting_Countries  1962 21283783 40301927
    ##  4  Americas Non_interesting_Countries  1967 22934225 40301927
    ##  5  Americas Non_interesting_Countries  1972 24779799 40301927
    ##  6  Americas Non_interesting_Countries  1977 26983828 40301927
    ##  7  Americas Non_interesting_Countries  1982 29341374 40301927
    ##  8  Americas Non_interesting_Countries  1987 31620918 40301927
    ##  9  Americas Non_interesting_Countries  1992 33958947 40301927
    ## 10  Americas Non_interesting_Countries  1997 36203463 40301927
    ## # ... with 290 more rows
…
OR we can import/export using dput/dget instead!

``` r
dput(Collapsed.Americas, "Collapsed.Americas-dput.txt")

Collapsed.Americas_dget <- dget("Collapsed.Americas-dput.txt") 


Collapsed.Americas_dget
```

    ## # A tibble: 300 x 5
    ##    continent                   country  year      pop   maxPop
    ##       <fctr>                    <fctr> <int>    <int>    <dbl>
    ##  1  Americas Non_interesting_Countries  1952 17876956 40301927
    ##  2  Americas Non_interesting_Countries  1957 19610538 40301927
    ##  3  Americas Non_interesting_Countries  1962 21283783 40301927
    ##  4  Americas Non_interesting_Countries  1967 22934225 40301927
    ##  5  Americas Non_interesting_Countries  1972 24779799 40301927
    ##  6  Americas Non_interesting_Countries  1977 26983828 40301927
    ##  7  Americas Non_interesting_Countries  1982 29341374 40301927
    ##  8  Americas Non_interesting_Countries  1987 31620918 40301927
    ##  9  Americas Non_interesting_Countries  1992 33958947 40301927
    ## 10  Americas Non_interesting_Countries  1997 36203463 40301927
    ## # ... with 290 more rows
…
